08:47:53 PM.342: CPU Name: Intel(R) Core(TM) i5-4288U CPU @ 2.60GHz
08:47:53 PM.342: CPU Speed: 2284.195MHz
08:47:53 PM.342: Physical Cores: 2, Logical Cores: 4
08:47:53 PM.342: Physical Memory: 7938MB Total, 4698MB Free
08:47:53 PM.342: Kernel Version: Linux 5.5.0-kali1-amd64
08:47:53 PM.343: Distribution: "Kali GNU/Linux" "2020.2"
08:47:53 PM.344: Window System: X11.0, Vendor: The X.Org Foundation, Version: 1.20.8
08:47:53 PM.347: Portable mode: false
08:47:53 PM.425: OBS 25.0.3+dfsg1-2 (linux)
08:47:53 PM.425: ---------------------------------
08:47:53 PM.425: ---------------------------------
08:47:53 PM.425: audio settings reset:
08:47:53 PM.425: 	samples per sec: 44100
08:47:53 PM.425: 	speakers:        2
08:47:53 PM.437: ---------------------------------
08:47:53 PM.437: Initializing OpenGL...
08:47:53 PM.470: Loading up OpenGL on adapter Intel Open Source Technology Center Mesa DRI Intel(R) Haswell 
08:47:53 PM.470: OpenGL loaded successfully, version 4.5 (Core Profile) Mesa 19.3.3, shading language 4.50
08:47:53 PM.486: ---------------------------------
08:47:53 PM.486: video settings reset:
08:47:53 PM.486: 	base resolution:   1920x1080
08:47:53 PM.486: 	output resolution: 960x540
08:47:53 PM.486: 	downscale filter:  Bicubic
08:47:53 PM.486: 	fps:               30/1
08:47:53 PM.486: 	format:            NV12
08:47:53 PM.486: 	YUV mode:          601/Partial
08:47:53 PM.486: NV12 texture support not available
08:47:53 PM.486: Audio monitoring device:
08:47:53 PM.486: 	name: Default
08:47:53 PM.486: 	id: default
08:47:53 PM.486: ---------------------------------
08:47:53 PM.488: Failed to load 'en-US' text for module: 'decklink-ouput-ui.so'
08:47:53 PM.552: A DeckLink iterator could not be created.  The DeckLink drivers may not be installed
08:47:53 PM.552: No blackmagic support
08:47:53 PM.581: FFMPEG VAAPI supported
08:47:53 PM.593: VLC found, VLC video source enabled
08:47:53 PM.593: ---------------------------------
08:47:53 PM.593:   Loaded Modules:
08:47:53 PM.593:     vlc-video.so
08:47:53 PM.593:     text-freetype2.so
08:47:53 PM.593:     rtmp-services.so
08:47:53 PM.593:     obs-x264.so
08:47:53 PM.593:     obs-transitions.so
08:47:53 PM.593:     obs-outputs.so
08:47:53 PM.593:     obs-filters.so
08:47:53 PM.593:     obs-ffmpeg.so
08:47:53 PM.593:     linux-v4l2.so
08:47:53 PM.593:     linux-pulseaudio.so
08:47:53 PM.593:     linux-jack.so
08:47:53 PM.593:     linux-decklink.so
08:47:53 PM.593:     linux-capture.so
08:47:53 PM.593:     linux-alsa.so
08:47:53 PM.593:     image-source.so
08:47:53 PM.593:     frontend-tools.so
08:47:53 PM.593:     decklink-ouput-ui.so
08:47:53 PM.593: ---------------------------------
08:47:53 PM.593: ==== Startup complete ===============================================
08:47:53 PM.595: All scene data cleared
08:47:53 PM.595: ------------------------------------------------
08:47:53 PM.598: pulse-input: Server name: 'pulseaudio 13.0'
08:47:53 PM.598: pulse-input: Audio format: s16le, 44100 Hz, 2 channels
08:47:53 PM.598: pulse-input: Started recording from 'alsa_output.pci-0000_00_1b.0.analog-stereo.monitor'
08:47:53 PM.659: pulse-input: Server name: 'pulseaudio 13.0'
08:47:53 PM.659: pulse-input: Audio format: s16le, 44100 Hz, 2 channels
08:47:53 PM.659: pulse-input: Started recording from 'alsa_input.pci-0000_00_1b.0.analog-stereo'
08:47:53 PM.660: v4l2-input: Start capture from 
08:47:53 PM.660: v4l2-input: Unable to open device
08:47:53 PM.660: v4l2-input: Initialization failed
08:47:53 PM.664: xshm-input: Geometry 3840x2160 @ 0,0
08:47:53 PM.664: Switched to scene 'Scene'
08:47:53 PM.664: ------------------------------------------------
08:47:53 PM.664: Loaded scenes:
08:47:53 PM.664: - scene 'Scene':
08:47:53 PM.664:     - source: 'Screen Capture (XSHM)' (xshm_input)
08:47:53 PM.665:     - source: 'Video Capture Device (V4L2)' (v4l2_input)
08:47:53 PM.665: ------------------------------------------------
08:47:54 PM.216: adding 46 milliseconds of audio buffering, total audio buffering is now 46 milliseconds (source: Mic/Aux)
08:47:54 PM.216: 
08:47:58 PM.056: v4l2-input: Found device 'Apple Facetime HD' at /dev/video0
08:47:58 PM.058: v4l2-input: Found input 'Camera' (Index 0)
08:47:58 PM.059: v4l2-input: Pixelformat: YUYV 4:2:2 (available)
08:47:58 PM.060: v4l2-input: Pixelformat: YVYU 4:2:2 (available)
08:47:58 PM.060: v4l2-input: Pixelformat: RGB3 (Emulated) (unavailable)
08:47:58 PM.060: v4l2-input: Pixelformat: BGR3 (Emulated) (available)
08:47:58 PM.060: v4l2-input: Pixelformat: YU12 (Emulated) (available)
08:47:58 PM.060: v4l2-input: Pixelformat: YV12 (Emulated) (available)
08:47:58 PM.061: v4l2-input: Stepwise and Continuous framesizes are currently hardcoded
08:47:58 PM.062: v4l2-input: Stepwise and Continuous framerates are currently hardcoded
08:47:58 PM.067: v4l2-input: Start capture from /dev/video0
08:47:58 PM.068: v4l2-input: Pixelformat: YUYV 4:2:2 (available)
08:47:58 PM.068: v4l2-input: Pixelformat: YVYU 4:2:2 (available)
08:47:58 PM.068: v4l2-input: Pixelformat: RGB3 (Emulated) (unavailable)
08:47:58 PM.068: v4l2-input: Pixelformat: BGR3 (Emulated) (available)
08:47:58 PM.068: v4l2-input: Pixelformat: YU12 (Emulated) (available)
08:47:58 PM.068: v4l2-input: Pixelformat: YV12 (Emulated) (available)
08:47:58 PM.068: v4l2-input: Input: 0
08:47:58 PM.068: v4l2-input: Resolution: 1280x720
08:47:58 PM.068: v4l2-input: Pixelformat: VYUY
08:47:58 PM.068: v4l2-input: Linesize: 2560 Bytes
08:47:58 PM.069: v4l2-input: Framerate: 25.00 fps
08:47:58 PM.069: v4l2-input: Stepwise and Continuous framesizes are currently hardcoded
08:47:58 PM.073: v4l2-input: Stepwise and Continuous framerates are currently hardcoded
08:47:58 PM.083: v4l2-input: Stepwise and Continuous framesizes are currently hardcoded
08:47:59 PM.129: v4l2-input: Stopped capture after 0 frames
08:47:59 PM.129: v4l2-input: Stepwise and Continuous framerates are currently hardcoded
08:47:59 PM.181: v4l2-input: Start capture from /dev/video0
08:47:59 PM.182: v4l2-input: Input: 0
08:47:59 PM.182: v4l2-input: Resolution: 1280x720
08:47:59 PM.182: v4l2-input: Pixelformat: VYUY
08:47:59 PM.182: v4l2-input: Linesize: 2560 Bytes
08:47:59 PM.182: v4l2-input: Framerate: 25.00 fps
08:48:40 PM.686: v4l2-input: Stepwise and Continuous framesizes are currently hardcoded
08:48:40 PM.691: v4l2-input: Stepwise and Continuous framerates are currently hardcoded
08:48:40 PM.720: v4l2-input: Stopped capture after 1213 frames
08:48:40 PM.870: v4l2-input: Start capture from /dev/video0
08:48:40 PM.871: v4l2-input: Input: 0
08:48:40 PM.871: v4l2-input: Resolution: 1280x720
08:48:40 PM.872: v4l2-input: Pixelformat: UYVY
08:48:40 PM.872: v4l2-input: Linesize: 2560 Bytes
08:48:40 PM.872: v4l2-input: Framerate: 25.00 fps
08:48:45 PM.807: v4l2-input: Stepwise and Continuous framesizes are currently hardcoded
08:48:45 PM.809: v4l2-input: Stepwise and Continuous framerates are currently hardcoded
08:48:45 PM.848: v4l2-input: Stopped capture after 117 frames
08:48:45 PM.993: v4l2-input: Start capture from /dev/video0
08:48:45 PM.994: v4l2-input: Input: 0
08:48:45 PM.994: v4l2-input: Resolution: 1280x720
08:48:45 PM.994: v4l2-input: Pixelformat: 3RGB
08:48:45 PM.994: v4l2-input: Linesize: 3840 Bytes
08:48:45 PM.995: v4l2-input: Framerate: 25.00 fps
08:48:52 PM.514: v4l2-input: Stepwise and Continuous framesizes are currently hardcoded
08:48:52 PM.516: v4l2-input: Stepwise and Continuous framerates are currently hardcoded
08:48:52 PM.538: v4l2-input: Stopped capture after 164 frames
08:48:52 PM.627: v4l2-input: Start capture from /dev/video0
08:48:52 PM.628: v4l2-input: Input: 0
08:48:52 PM.628: v4l2-input: Resolution: 1280x720
08:48:52 PM.628: v4l2-input: Pixelformat: VYUY
08:48:52 PM.628: v4l2-input: Linesize: 2560 Bytes
08:48:52 PM.628: v4l2-input: Framerate: 25.00 fps
08:48:54 PM.805: v4l2-input: Stopped capture after 33 frames
08:48:54 PM.937: v4l2-input: Start capture from /dev/video0
08:48:54 PM.939: v4l2-input: Input: 0
08:48:54 PM.939: v4l2-input: Resolution: 1280x720
08:48:54 PM.939: v4l2-input: Pixelformat: VYUY
08:48:54 PM.939: v4l2-input: Linesize: 2560 Bytes
08:48:54 PM.939: v4l2-input: Framerate: 50.00 fps
08:49:10 PM.135: v4l2-input: Stopped capture after 282 frames
08:49:10 PM.238: v4l2-input: Start capture from /dev/video0
08:49:10 PM.239: v4l2-input: Input: 0
08:49:10 PM.239: v4l2-input: Resolution: 1280x720
08:49:10 PM.239: v4l2-input: Pixelformat: VYUY
08:49:10 PM.239: v4l2-input: Linesize: 2560 Bytes
08:49:10 PM.239: v4l2-input: Framerate: 50.00 fps
08:49:21 PM.435: v4l2-input: Stopped capture after 202 frames
08:49:21 PM.538: v4l2-input: Start capture from /dev/video0
08:49:21 PM.539: v4l2-input: Input: 0
08:49:21 PM.539: v4l2-input: Resolution: 1280x720
08:49:21 PM.539: v4l2-input: Pixelformat: VYUY
08:49:21 PM.539: v4l2-input: Linesize: 2560 Bytes
08:49:21 PM.539: v4l2-input: Framerate: 50.00 fps
08:49:29 PM.933: v4l2-input: Stepwise and Continuous framerates are currently hardcoded
08:49:29 PM.984: v4l2-input: Stopped capture after 147 frames
08:49:30 PM.088: v4l2-input: Start capture from /dev/video0
08:49:30 PM.089: v4l2-input: Input: 0
08:49:30 PM.089: v4l2-input: Resolution: 1024x576
08:49:30 PM.089: v4l2-input: Pixelformat: VYUY
08:49:30 PM.089: v4l2-input: Linesize: 2048 Bytes
08:49:30 PM.090: v4l2-input: Framerate: 50.00 fps
08:49:37 PM.085: v4l2-input: Stepwise and Continuous framerates are currently hardcoded
08:49:37 PM.134: v4l2-input: Stopped capture after 119 frames
08:49:37 PM.237: v4l2-input: Start capture from /dev/video0
08:49:37 PM.238: v4l2-input: Input: 0
08:49:37 PM.239: v4l2-input: Resolution: 720x576
08:49:37 PM.239: v4l2-input: Pixelformat: VYUY
08:49:37 PM.239: v4l2-input: Linesize: 1440 Bytes
08:49:37 PM.239: v4l2-input: Framerate: 50.00 fps
08:49:44 PM.805: v4l2-input: Stepwise and Continuous framerates are currently hardcoded
08:49:44 PM.937: v4l2-input: Stopped capture after 132 frames
08:49:45 PM.041: v4l2-input: Start capture from /dev/video0
08:49:45 PM.044: v4l2-input: Input: 0
08:49:45 PM.044: v4l2-input: Resolution: 1280x720
08:49:45 PM.044: v4l2-input: Pixelformat: VYUY
08:49:45 PM.044: v4l2-input: Linesize: 2560 Bytes
08:49:45 PM.044: v4l2-input: Framerate: 50.00 fps
08:51:17 PM.222: User Removed source 'Video Capture Device (V4L2)' (v4l2_input) from scene 'Scene'
08:51:17 PM.248: v4l2-input: Stopped capture after 1823 frames
08:51:27 PM.449: v4l2-input: Start capture from 
08:51:27 PM.449: v4l2-input: Unable to open device
08:51:27 PM.449: v4l2-input: Initialization failed
08:51:27 PM.451: User added source 'Video Capture Device (V4L2)' (v4l2_input) to scene 'Scene'
08:51:27 PM.549: v4l2-input: Found device 'Apple Facetime HD' at /dev/video0
08:51:27 PM.550: v4l2-input: Found input 'Camera' (Index 0)
08:51:27 PM.551: v4l2-input: Pixelformat: YUYV 4:2:2 (available)
08:51:27 PM.551: v4l2-input: Pixelformat: YVYU 4:2:2 (available)
08:51:27 PM.551: v4l2-input: Pixelformat: RGB3 (Emulated) (unavailable)
08:51:27 PM.551: v4l2-input: Pixelformat: BGR3 (Emulated) (available)
08:51:27 PM.551: v4l2-input: Pixelformat: YU12 (Emulated) (available)
08:51:27 PM.551: v4l2-input: Pixelformat: YV12 (Emulated) (available)
08:51:27 PM.551: v4l2-input: Stepwise and Continuous framesizes are currently hardcoded
08:51:27 PM.552: v4l2-input: Stepwise and Continuous framerates are currently hardcoded
08:51:27 PM.557: v4l2-input: Pixelformat: YUYV 4:2:2 (available)
08:51:27 PM.557: v4l2-input: Pixelformat: YVYU 4:2:2 (available)
08:51:27 PM.557: v4l2-input: Pixelformat: RGB3 (Emulated) (unavailable)
08:51:27 PM.557: v4l2-input: Pixelformat: BGR3 (Emulated) (available)
08:51:27 PM.557: v4l2-input: Pixelformat: YU12 (Emulated) (available)
08:51:27 PM.557: v4l2-input: Pixelformat: YV12 (Emulated) (available)
08:51:27 PM.557: v4l2-input: Stepwise and Continuous framesizes are currently hardcoded
08:51:27 PM.557: v4l2-input: Start capture from /dev/video0
08:51:27 PM.558: v4l2-input: Input: 0
08:51:27 PM.558: v4l2-input: Stepwise and Continuous framerates are currently hardcoded
08:51:27 PM.558: v4l2-input: Resolution: 640x480
08:51:27 PM.558: v4l2-input: Pixelformat: VYUY
08:51:27 PM.558: v4l2-input: Linesize: 1280 Bytes
08:51:27 PM.558: v4l2-input: Framerate: 30.30 fps
08:51:27 PM.562: v4l2-input: Stepwise and Continuous framesizes are currently hardcoded
08:51:27 PM.565: v4l2-input: Stepwise and Continuous framerates are currently hardcoded
08:51:28 PM.614: v4l2-input: Stopped capture after 0 frames
08:51:28 PM.664: v4l2-input: Start capture from /dev/video0
08:51:28 PM.665: v4l2-input: Input: 0
08:51:28 PM.665: v4l2-input: Resolution: 640x480
08:51:28 PM.665: v4l2-input: Pixelformat: VYUY
08:51:28 PM.665: v4l2-input: Linesize: 1280 Bytes
08:51:28 PM.665: v4l2-input: Framerate: 30.30 fps
08:54:02 PM.142: v4l2-input: Stopped capture after 4568 frames
08:54:02 PM.210: v4l2-input: Start capture from /dev/video0
08:54:02 PM.211: v4l2-input: Input: 0
08:54:02 PM.211: v4l2-input: Resolution: 640x480
08:54:02 PM.211: v4l2-input: Pixelformat: VYUY
08:54:02 PM.211: v4l2-input: Linesize: 1280 Bytes
08:54:02 PM.211: v4l2-input: Framerate: 5.00 fps
08:54:10 PM.448: v4l2-input: Stopped capture after 215 frames
08:54:10 PM.577: v4l2-input: Start capture from /dev/video0
08:54:10 PM.579: v4l2-input: Input: 0
08:54:10 PM.579: v4l2-input: Resolution: 640x480
08:54:10 PM.579: v4l2-input: Pixelformat: VYUY
08:54:10 PM.579: v4l2-input: Linesize: 1280 Bytes
08:54:10 PM.579: v4l2-input: Framerate: 30.30 fps
08:54:20 PM.152: v4l2-input: Stopped capture after 255 frames
08:54:20 PM.220: v4l2-input: Start capture from /dev/video0
08:54:20 PM.221: v4l2-input: Input: 0
08:54:20 PM.221: v4l2-input: Resolution: 640x480
08:54:20 PM.221: v4l2-input: Pixelformat: VYUY
08:54:20 PM.221: v4l2-input: Linesize: 1280 Bytes
08:54:20 PM.221: v4l2-input: Framerate: 50.00 fps
09:03:16 PM.905: v4l2-input: Stopped capture after 10718 frames
09:03:17 PM.006: v4l2-input: Start capture from 
09:03:17 PM.007: v4l2-input: Unable to open device
09:03:17 PM.007: v4l2-input: Initialization failed
09:03:20 PM.281: ==== Shutting down ==================================================
09:03:20 PM.291: Switched to scene '(null)'
09:03:21 PM.135: pulse-input: Stopped recording from 'alsa_output.pci-0000_00_1b.0.analog-stereo.monitor'
09:03:21 PM.135: pulse-input: Got 183137 packets with 40813877 frames
09:03:21 PM.135: pulse-input: Stopped recording from 'alsa_input.pci-0000_00_1b.0.analog-stereo'
09:03:21 PM.135: pulse-input: Got 84202 packets with 40900816 frames
09:03:21 PM.136: All scene data cleared
09:03:21 PM.136: ------------------------------------------------
09:03:21 PM.205: Failed to fetch parent window geometry!
09:03:21 PM.305: Freeing OBS context data
09:03:21 PM.329: [Scripting] Total detached callbacks: 0
09:03:21 PM.345: == Profiler Results =============================
09:03:21 PM.345: run_program_init: 983.665 ms
09:03:21 PM.345:  ┣OBSApp::AppInit: 4.486 ms
09:03:21 PM.345:  ┃ ┗OBSApp::InitLocale: 1.543 ms
09:03:21 PM.345:  ┗OBSApp::OBSInit: 731.855 ms
09:03:21 PM.345:    ┣obs_startup: 25.475 ms
09:03:21 PM.345:    ┗OBSBasic::OBSInit: 619.526 ms
09:03:21 PM.345:      ┣OBSBasic::InitBasicConfig: 0.085 ms
09:03:21 PM.345:      ┣OBSBasic::ResetAudio: 0.168 ms
09:03:21 PM.345:      ┣OBSBasic::ResetVideo: 61.091 ms
09:03:21 PM.345:      ┣OBSBasic::InitOBSCallbacks: 0.006 ms
09:03:21 PM.345:      ┣OBSBasic::InitHotkeys: 0.042 ms
09:03:21 PM.345:      ┣obs_load_all_modules: 106.679 ms
09:03:21 PM.345:      ┃ ┣obs_init_module(decklink-ouput-ui.so): 0.697 ms
09:03:21 PM.345:      ┃ ┣obs_init_module(frontend-tools.so): 52.261 ms
09:03:21 PM.345:      ┃ ┣obs_init_module(image-source.so): 0.007 ms
09:03:21 PM.345:      ┃ ┣obs_init_module(linux-alsa.so): 0.002 ms
09:03:21 PM.345:      ┃ ┣obs_init_module(linux-capture.so): 0.436 ms
09:03:21 PM.345:      ┃ ┣obs_init_module(linux-decklink.so): 0.178 ms
09:03:21 PM.345:      ┃ ┣obs_init_module(linux-jack.so): 0.005 ms
09:03:21 PM.345:      ┃ ┣obs_init_module(linux-pulseaudio.so): 0.002 ms
09:03:21 PM.345:      ┃ ┣obs_init_module(linux-v4l2.so): 0.002 ms
09:03:21 PM.345:      ┃ ┣obs_init_module(obs-ffmpeg.so): 0.145 ms
09:03:21 PM.345:      ┃ ┃ ┗nvenc_check: 0.095 ms
09:03:21 PM.345:      ┃ ┣obs_init_module(obs-filters.so): 0.031 ms
09:03:21 PM.345:      ┃ ┣obs_init_module(obs-outputs.so): 0.002 ms
09:03:21 PM.345:      ┃ ┣obs_init_module(obs-transitions.so): 0.007 ms
09:03:21 PM.345:      ┃ ┣obs_init_module(obs-x264.so): 0.002 ms
09:03:21 PM.345:      ┃ ┣obs_init_module(rtmp-services.so): 0.536 ms
09:03:21 PM.345:      ┃ ┣obs_init_module(text-freetype2.so): 0.012 ms
09:03:21 PM.345:      ┃ ┗obs_init_module(vlc-video.so): 2.496 ms
09:03:21 PM.345:      ┣OBSBasic::ResetOutputs: 0.13 ms
09:03:21 PM.345:      ┣OBSBasic::CreateHotkeys: 0.033 ms
09:03:21 PM.345:      ┣OBSBasic::InitService: 1.209 ms
09:03:21 PM.345:      ┣OBSBasic::InitPrimitives: 0.141 ms
09:03:21 PM.345:      ┗OBSBasic::Load: 74.988 ms
09:03:21 PM.345: obs_hotkey_thread(25 ms): min=0.063 ms, median=10.044 ms, max=196.66 ms, 99th percentile=96.701 ms, 59.9013% below 25 ms
09:03:21 PM.345: audio_thread(Audio): min=0 ms, median=0.25 ms, max=9.465 ms, 99th percentile=0.962 ms
09:03:21 PM.345: obs_graphics_thread(33.3333 ms): min=0.114 ms, median=99.812 ms, max=1111 ms, 99th percentile=222.462 ms, 0.378337% below 33.333 ms
09:03:21 PM.345:  ┣tick_sources: min=0.001 ms, median=65.283 ms, max=1109.26 ms, 99th percentile=115.462 ms
09:03:21 PM.345:  ┣output_frame: min=0.088 ms, median=0.863 ms, max=48.145 ms, 99th percentile=4.08 ms
09:03:21 PM.345:  ┃ ┗gs_context(video->graphics): min=0.088 ms, median=0.862 ms, max=48.145 ms, 99th percentile=4.079 ms
09:03:21 PM.345:  ┃   ┣render_video: min=0.033 ms, median=0.742 ms, max=30.275 ms, 99th percentile=3.61 ms
09:03:21 PM.345:  ┃   ┃ ┗render_main_texture: min=0.029 ms, median=0.736 ms, max=30.246 ms, 99th percentile=3.598 ms
09:03:21 PM.345:  ┃   ┗gs_flush: min=0.027 ms, median=0.085 ms, max=47.574 ms, 99th percentile=0.346 ms
09:03:21 PM.346:  ┗render_displays: min=0.004 ms, median=32.379 ms, max=318.132 ms, 99th percentile=125.698 ms
09:03:21 PM.346: =================================================
09:03:21 PM.346: == Profiler Time Between Calls ==================
09:03:21 PM.346: obs_hotkey_thread(25 ms): min=25.133 ms, median=35.16 ms, max=222.299 ms, 30.3129% within ±2% of 25 ms (0% lower, 69.6871% higher)
09:03:21 PM.346: obs_graphics_thread(33.3333 ms): min=11.093 ms, median=99.857 ms, max=1111.01 ms, 0.313514% within ±2% of 33.333 ms (0.0648649% lower, 99.6216% higher)
09:03:21 PM.346: =================================================
09:03:21 PM.443: Number of memory leaks: 0
