10:03:17 AM.957: CPU Name: Intel(R) Core(TM) i5-4288U CPU @ 2.60GHz
10:03:17 AM.957: CPU Speed: 2045.883MHz
10:03:17 AM.957: Physical Cores: 2, Logical Cores: 4
10:03:17 AM.957: Physical Memory: 7938MB Total, 4335MB Free
10:03:17 AM.957: Kernel Version: Linux 5.5.0-kali2-amd64
10:03:17 AM.957: Distribution: "Kali GNU/Linux" "2020.2"
10:03:17 AM.958: Window System: X11.0, Vendor: The X.Org Foundation, Version: 1.20.8
10:03:17 AM.961: Portable mode: false
10:03:18 AM.016: OBS 25.0.3+dfsg1-2 (linux)
10:03:18 AM.016: ---------------------------------
10:03:18 AM.047: ---------------------------------
10:03:18 AM.047: audio settings reset:
10:03:18 AM.047: 	samples per sec: 44100
10:03:18 AM.047: 	speakers:        2
10:03:18 AM.060: ---------------------------------
10:03:18 AM.060: Initializing OpenGL...
10:03:18 AM.091: Loading up OpenGL on adapter Intel Open Source Technology Center Mesa DRI Intel(R) Haswell 
10:03:18 AM.091: OpenGL loaded successfully, version 4.5 (Core Profile) Mesa 19.3.3, shading language 4.50
10:03:18 AM.112: ---------------------------------
10:03:18 AM.112: video settings reset:
10:03:18 AM.112: 	base resolution:   1920x1080
10:03:18 AM.112: 	output resolution: 960x540
10:03:18 AM.112: 	downscale filter:  Bicubic
10:03:18 AM.112: 	fps:               30/1
10:03:18 AM.112: 	format:            NV12
10:03:18 AM.112: 	YUV mode:          601/Partial
10:03:18 AM.112: NV12 texture support not available
10:03:18 AM.115: Audio monitoring device:
10:03:18 AM.115: 	name: Default
10:03:18 AM.115: 	id: default
10:03:18 AM.116: ---------------------------------
10:03:18 AM.119: Failed to load 'en-US' text for module: 'decklink-ouput-ui.so'
10:03:18 AM.252: A DeckLink iterator could not be created.  The DeckLink drivers may not be installed
10:03:18 AM.252: No blackmagic support
10:03:18 AM.396: FFMPEG VAAPI supported
10:03:18 AM.472: VLC found, VLC video source enabled
10:03:18 AM.472: ---------------------------------
10:03:18 AM.472:   Loaded Modules:
10:03:18 AM.472:     vlc-video.so
10:03:18 AM.472:     text-freetype2.so
10:03:18 AM.472:     rtmp-services.so
10:03:18 AM.472:     obs-x264.so
10:03:18 AM.472:     obs-transitions.so
10:03:18 AM.472:     obs-outputs.so
10:03:18 AM.472:     obs-filters.so
10:03:18 AM.472:     obs-ffmpeg.so
10:03:18 AM.472:     linux-v4l2.so
10:03:18 AM.472:     linux-pulseaudio.so
10:03:18 AM.472:     linux-jack.so
10:03:18 AM.472:     linux-decklink.so
10:03:18 AM.472:     linux-capture.so
10:03:18 AM.472:     linux-alsa.so
10:03:18 AM.472:     image-source.so
10:03:18 AM.472:     frontend-tools.so
10:03:18 AM.472:     decklink-ouput-ui.so
10:03:18 AM.472: ---------------------------------
10:03:18 AM.476: ==== Startup complete ===============================================
10:03:18 AM.491: All scene data cleared
10:03:18 AM.491: ------------------------------------------------
10:03:18 AM.503: Source ID 'coreaudio_output_capture' not found
10:03:18 AM.503: Failed to create source 'Desktop Audio'!
10:03:18 AM.503: Source ID 'coreaudio_input_capture' not found
10:03:18 AM.503: Failed to create source 'Mic/Aux'!
10:03:18 AM.549: xshm-input: Geometry 3840x2160 @ 0,0
10:03:18 AM.551: v4l2-input: Start capture from /dev/video0
10:03:18 AM.551: v4l2-input: Unable to open device
10:03:18 AM.551: v4l2-input: Initialization failed
10:03:18 AM.552: Switched to scene 'Normal'
10:03:18 AM.552: ------------------------------------------------
10:03:18 AM.552: Loaded scenes:
10:03:18 AM.552: - scene 'Normal':
10:03:18 AM.554:     - source: 'Screen Capture (XSHM)' (xshm_input)
10:03:18 AM.554:     - source: 'Video Capture Device (V4L2)' (v4l2_input)
10:03:18 AM.554:     - source: 'Group' (group)
10:03:18 AM.554:         - source: 'Webcam Overlay.png' (image_source)
10:03:18 AM.554:     - source: 'Main Overlay.png' (image_source)
10:03:18 AM.554: ------------------------------------------------
10:03:19 AM.170: [rtmp-services plugin] Successfully updated file 'services.json' (version 132)
10:03:19 AM.170: [rtmp-services plugin] Successfully updated package (version 132)
10:04:06 AM.825: ---------------------------------
10:04:06 AM.825: video settings reset:
10:04:06 AM.825: 	base resolution:   3840x2160
10:04:06 AM.825: 	output resolution: 3840x2160
10:04:06 AM.825: 	downscale filter:  Bicubic
10:04:06 AM.825: 	fps:               30/1
10:04:06 AM.825: 	format:            NV12
10:04:06 AM.825: 	YUV mode:          601/Partial
10:04:06 AM.825: NV12 texture support not available
10:06:33 AM.713: ---------------------------------
10:06:33 AM.713: [x264 encoder: 'simple_h264_stream'] preset: veryfast
10:06:33 AM.714: [x264 encoder: 'simple_h264_stream'] settings:
10:06:33 AM.714: 	rate_control: CBR
10:06:33 AM.714: 	bitrate:      1261
10:06:33 AM.714: 	buffer size:  1261
10:06:33 AM.714: 	crf:          0
10:06:33 AM.714: 	fps_num:      30
10:06:33 AM.714: 	fps_den:      1
10:06:33 AM.714: 	width:        3840
10:06:33 AM.714: 	height:       2160
10:06:33 AM.714: 	keyint:       60
10:06:33 AM.714: 
10:06:33 AM.714: [x264 encoder: 'simple_h264_stream'] custom settings: scenecut=0
10:06:33 AM.746: ---------------------------------
10:06:33 AM.747: [FFmpeg aac encoder: 'simple_aac'] bitrate: 160, channels: 2, channel_layout: 3
10:06:33 AM.747: 
10:06:33 AM.752: [rtmp stream: 'simple_stream'] Connecting to RTMP URL rtmp://live-dfw.twitch.tv/app...
10:06:34 AM.790: [rtmp stream: 'simple_stream'] Connection to rtmp://live-dfw.twitch.tv/app successful
10:06:34 AM.794: ==== Streaming Start ===============================================
10:11:08 AM.036: ==== Shutting down ==================================================
10:11:08 AM.039: Switched to scene '(null)'
10:11:09 AM.897: All scene data cleared
10:11:09 AM.897: ------------------------------------------------
10:11:10 AM.084: [rtmp stream: 'simple_stream'] User stopped the stream
10:11:10 AM.084: Output 'simple_stream': stopping
10:11:10 AM.084: Output 'simple_stream': Total frames output: 2057
10:11:10 AM.084: Output 'simple_stream': Total drawn frames: 1585 (8285 attempted)
10:11:10 AM.084: Output 'simple_stream': Number of lagged frames due to rendering lag/stalls: 6700 (80.9%)
10:11:10 AM.692: Video stopped, number of skipped frames due to encoding lag: 1925/2084 (92.4%)
10:11:11 AM.620: Freeing OBS context data
10:11:11 AM.830: [Scripting] Total detached callbacks: 0
10:11:11 AM.992: == Profiler Results =============================
10:11:11 AM.992: run_program_init: 926.076 ms
10:11:11 AM.992:  ┣OBSApp::AppInit: 5.971 ms
10:11:11 AM.992:  ┃ ┗OBSApp::InitLocale: 3.026 ms
10:11:11 AM.992:  ┗OBSApp::OBSInit: 853.093 ms
10:11:11 AM.992:    ┣obs_startup: 23.952 ms
10:11:11 AM.992:    ┗OBSBasic::OBSInit: 741.895 ms
10:11:11 AM.992:      ┣OBSBasic::InitBasicConfig: 0.105 ms
10:11:11 AM.992:      ┣OBSBasic::ResetAudio: 0.141 ms
10:11:11 AM.992:      ┣OBSBasic::ResetVideo: 68.32 ms
10:11:11 AM.992:      ┣OBSBasic::InitOBSCallbacks: 0.015 ms
10:11:11 AM.992:      ┣OBSBasic::InitHotkeys: 0.079 ms
10:11:11 AM.992:      ┣obs_load_all_modules: 356.565 ms
10:11:11 AM.992:      ┃ ┣obs_init_module(decklink-ouput-ui.so): 1.183 ms
10:11:11 AM.992:      ┃ ┣obs_init_module(frontend-tools.so): 100.297 ms
10:11:11 AM.992:      ┃ ┣obs_init_module(image-source.so): 0.009 ms
10:11:11 AM.992:      ┃ ┣obs_init_module(linux-alsa.so): 0.003 ms
10:11:11 AM.992:      ┃ ┣obs_init_module(linux-capture.so): 0.281 ms
10:11:11 AM.992:      ┃ ┣obs_init_module(linux-decklink.so): 1.092 ms
10:11:11 AM.992:      ┃ ┣obs_init_module(linux-jack.so): 0.004 ms
10:11:11 AM.992:      ┃ ┣obs_init_module(linux-pulseaudio.so): 0.004 ms
10:11:11 AM.992:      ┃ ┣obs_init_module(linux-v4l2.so): 0.003 ms
10:11:11 AM.992:      ┃ ┣obs_init_module(obs-ffmpeg.so): 0.848 ms
10:11:11 AM.992:      ┃ ┃ ┗nvenc_check: 0.715 ms
10:11:11 AM.992:      ┃ ┣obs_init_module(obs-filters.so): 0.042 ms
10:11:11 AM.992:      ┃ ┣obs_init_module(obs-outputs.so): 0.004 ms
10:11:11 AM.992:      ┃ ┣obs_init_module(obs-transitions.so): 0.013 ms
10:11:11 AM.992:      ┃ ┣obs_init_module(obs-x264.so): 0.006 ms
10:11:11 AM.992:      ┃ ┣obs_init_module(rtmp-services.so): 2.239 ms
10:11:11 AM.993:      ┃ ┣obs_init_module(text-freetype2.so): 0.231 ms
10:11:11 AM.993:      ┃ ┗obs_init_module(vlc-video.so): 30.617 ms
10:11:11 AM.993:      ┣OBSBasic::ResetOutputs: 1.481 ms
10:11:11 AM.993:      ┣OBSBasic::CreateHotkeys: 0.145 ms
10:11:11 AM.993:      ┣OBSBasic::InitService: 4.951 ms
10:11:11 AM.993:      ┣OBSBasic::InitPrimitives: 0.766 ms
10:11:11 AM.993:      ┗OBSBasic::Load: 79.753 ms
10:11:11 AM.993: obs_hotkey_thread(25 ms): min=0.069 ms, median=20.749 ms, max=483.75 ms, 99th percentile=221.132 ms, 54.5314% below 25 ms
10:11:11 AM.993: audio_thread(Audio): min=0 ms, median=0.372 ms, max=39.719 ms, 99th percentile=5.942 ms
10:11:11 AM.993:  ┗receive_audio: min=0.003 ms, median=0.674 ms, max=23.541 ms, 99th percentile=5.593 ms, 0.602937 calls per parent call
10:11:11 AM.993:    ┣buffer_audio: min=0.001 ms, median=0.004 ms, max=1.486 ms, 99th percentile=0.019 ms
10:11:11 AM.993:    ┗do_encode: min=0.137 ms, median=0.66 ms, max=23.483 ms, 99th percentile=5.436 ms
10:11:11 AM.993:      ┗encode(simple_aac): min=0.127 ms, median=0.368 ms, max=16.103 ms, 99th percentile=3.661 ms
10:11:11 AM.993: obs_graphics_thread(33.3333 ms): min=0.11 ms, median=31.346 ms, max=151.108 ms, 99th percentile=100.037 ms, 56.2449% below 33.333 ms
10:11:11 AM.993:  ┣tick_sources: min=0 ms, median=27.371 ms, max=100.333 ms, 99th percentile=72.521 ms
10:11:11 AM.993:  ┣output_frame: min=0.082 ms, median=0.844 ms, max=18.114 ms, 99th percentile=6.565 ms
10:11:11 AM.993:  ┃ ┗gs_context(video->graphics): min=0.082 ms, median=0.842 ms, max=18.111 ms, 99th percentile=6.564 ms
10:11:11 AM.993:  ┃   ┣render_video: min=0.034 ms, median=0.624 ms, max=13.617 ms, 99th percentile=5.679 ms
10:11:11 AM.993:  ┃   ┃ ┗render_main_texture: min=0.03 ms, median=0.614 ms, max=13.599 ms, 99th percentile=5.674 ms
10:11:11 AM.993:  ┃   ┗gs_flush: min=0.042 ms, median=0.155 ms, max=11.424 ms, 99th percentile=1.996 ms
10:11:11 AM.993:  ┗render_displays: min=0.004 ms, median=2.352 ms, max=94.236 ms, 99th percentile=39.837 ms
10:11:11 AM.993: OBSBasic::ResetVideo: 113.668 ms
10:11:11 AM.993: obs_graphics_thread(33.3333 ms): min=0.475 ms, median=85.495 ms, max=563.816 ms, 99th percentile=384.218 ms, 1.35135% below 33.333 ms
10:11:11 AM.993:  ┣tick_sources: min=0.002 ms, median=72 ms, max=330.288 ms, 99th percentile=245.538 ms
10:11:11 AM.993:  ┣output_frame: min=0.066 ms, median=0.619 ms, max=120.362 ms, 99th percentile=44.928 ms
10:11:11 AM.993:  ┃ ┣gs_context(video->graphics): min=0.065 ms, median=0.613 ms, max=102.605 ms, 99th percentile=43.854 ms
10:11:11 AM.993:  ┃ ┃ ┣render_video: min=0.036 ms, median=0.433 ms, max=68.036 ms, 99th percentile=25.287 ms
10:11:11 AM.993:  ┃ ┃ ┃ ┣render_main_texture: min=0.033 ms, median=0.346 ms, max=67.615 ms, 99th percentile=20.09 ms
10:11:11 AM.993:  ┃ ┃ ┃ ┣render_convert_texture: min=0.033 ms, median=0.099 ms, max=45.127 ms, 99th percentile=12.467 ms, 0.408004 calls per parent call
10:11:11 AM.993:  ┃ ┃ ┃ ┗stage_output_texture: min=0.019 ms, median=0.062 ms, max=45.83 ms, 99th percentile=7.823 ms, 0.408004 calls per parent call
10:11:11 AM.993:  ┃ ┃ ┣gs_flush: min=0.025 ms, median=0.109 ms, max=89.482 ms, 99th percentile=35.192 ms
10:11:11 AM.993:  ┃ ┃ ┗download_frame: min=0 ms, median=0.011 ms, max=77.107 ms, 99th percentile=12.647 ms, 0.408004 calls per parent call
10:11:11 AM.993:  ┃ ┗output_video_data: min=0 ms, median=0.002 ms, max=59.278 ms, 99th percentile=15.36 ms, 0.407744 calls per parent call
10:11:11 AM.993:  ┗render_displays: min=0.019 ms, median=5.507 ms, max=426.583 ms, 99th percentile=154.812 ms
10:11:11 AM.993: video_thread(video): min=0.072 ms, median=451.031 ms, max=60397 ms, 99th percentile=60397 ms
10:11:11 AM.993:  ┗receive_video: min=7.008 ms, median=58.44 ms, max=1517.25 ms, 99th percentile=1172.23 ms, 54.8684 calls per parent call
10:11:11 AM.994:    ┗do_encode: min=7.006 ms, median=58.438 ms, max=1517.24 ms, 99th percentile=1172.23 ms
10:11:11 AM.994:      ┗encode(simple_h264_stream): min=6.921 ms, median=57.71 ms, max=1517.13 ms, 99th percentile=1172.21 ms
10:11:11 AM.994: =================================================
10:11:11 AM.994: == Profiler Time Between Calls ==================
10:11:11 AM.994: obs_hotkey_thread(25 ms): min=25.12 ms, median=46.011 ms, max=509.337 ms, 4.24489% within ±2% of 25 ms (0% lower, 95.7551% higher)
10:11:11 AM.994: obs_graphics_thread(33.3333 ms): min=22.502 ms, median=33.372 ms, max=151.127 ms, 37.9902% within ±2% of 33.333 ms (19.1993% lower, 42.8105% higher)
10:11:11 AM.994: obs_graphics_thread(33.3333 ms): min=5.516 ms, median=85.513 ms, max=563.83 ms, 0.54588% within ±2% of 33.333 ms (0.831817% lower, 98.6223% higher)
10:11:11 AM.994: =================================================
10:11:12 AM.155: Number of memory leaks: 1
