10:21:04 AM.195: CPU Name: Intel(R) Core(TM) i5-4288U CPU @ 2.60GHz
10:21:04 AM.195: CPU Speed: 2243.449MHz
10:21:04 AM.195: Physical Cores: 2, Logical Cores: 4
10:21:04 AM.195: Physical Memory: 7938MB Total, 2806MB Free
10:21:04 AM.195: Kernel Version: Linux 5.5.0-kali1-amd64
10:21:04 AM.195: Distribution: "Kali GNU/Linux" "2020.2"
10:21:04 AM.195: Window System: X11.0, Vendor: The X.Org Foundation, Version: 1.20.8
10:21:04 AM.198: Portable mode: false
10:21:04 AM.249: OBS 25.0.3+dfsg1-2 (linux)
10:21:04 AM.249: ---------------------------------
10:21:04 AM.274: ---------------------------------
10:21:04 AM.274: audio settings reset:
10:21:04 AM.274: 	samples per sec: 44100
10:21:04 AM.274: 	speakers:        2
10:21:04 AM.286: ---------------------------------
10:21:04 AM.286: Initializing OpenGL...
10:21:04 AM.313: Loading up OpenGL on adapter Intel Open Source Technology Center Mesa DRI Intel(R) Haswell 
10:21:04 AM.313: OpenGL loaded successfully, version 4.5 (Core Profile) Mesa 19.3.3, shading language 4.50
10:21:04 AM.330: ---------------------------------
10:21:04 AM.330: video settings reset:
10:21:04 AM.330: 	base resolution:   1920x1080
10:21:04 AM.330: 	output resolution: 960x540
10:21:04 AM.330: 	downscale filter:  Bicubic
10:21:04 AM.330: 	fps:               30/1
10:21:04 AM.330: 	format:            NV12
10:21:04 AM.330: 	YUV mode:          601/Partial
10:21:04 AM.330: NV12 texture support not available
10:21:04 AM.333: Audio monitoring device:
10:21:04 AM.333: 	name: Default
10:21:04 AM.333: 	id: default
10:21:04 AM.333: ---------------------------------
10:21:04 AM.337: Failed to load 'en-US' text for module: 'decklink-ouput-ui.so'
10:21:04 AM.437: A DeckLink iterator could not be created.  The DeckLink drivers may not be installed
10:21:04 AM.437: No blackmagic support
10:21:04 AM.537: FFMPEG VAAPI supported
10:21:04 AM.570: VLC found, VLC video source enabled
10:21:04 AM.570: ---------------------------------
10:21:04 AM.570:   Loaded Modules:
10:21:04 AM.570:     vlc-video.so
10:21:04 AM.570:     text-freetype2.so
10:21:04 AM.570:     rtmp-services.so
10:21:04 AM.570:     obs-x264.so
10:21:04 AM.570:     obs-transitions.so
10:21:04 AM.570:     obs-outputs.so
10:21:04 AM.570:     obs-filters.so
10:21:04 AM.570:     obs-ffmpeg.so
10:21:04 AM.570:     linux-v4l2.so
10:21:04 AM.570:     linux-pulseaudio.so
10:21:04 AM.570:     linux-jack.so
10:21:04 AM.570:     linux-decklink.so
10:21:04 AM.570:     linux-capture.so
10:21:04 AM.570:     linux-alsa.so
10:21:04 AM.570:     image-source.so
10:21:04 AM.570:     frontend-tools.so
10:21:04 AM.570:     decklink-ouput-ui.so
10:21:04 AM.570: ---------------------------------
10:21:04 AM.570: ==== Startup complete ===============================================
10:21:04 AM.576: All scene data cleared
10:21:04 AM.576: ------------------------------------------------
10:21:04 AM.577: Source ID 'coreaudio_output_capture' not found
10:21:04 AM.577: Failed to create source 'Desktop Audio'!
10:21:04 AM.578: Source ID 'coreaudio_input_capture' not found
10:21:04 AM.578: Failed to create source 'Mic/Aux'!
10:21:04 AM.578: v4l2-input: Start capture from /dev/video0
10:21:04 AM.579: v4l2-input: Input: 0
10:21:04 AM.579: v4l2-input: Resolution: 1280x720
10:21:04 AM.579: v4l2-input: Pixelformat: VYUY
10:21:04 AM.579: v4l2-input: Linesize: 2560 Bytes
10:21:04 AM.579: v4l2-input: Framerate: 30.30 fps
10:21:04 AM.581: xshm-input: Geometry 3840x2160 @ 0,0
10:21:04 AM.619: Switched to scene 'Normal'
10:21:04 AM.619: ------------------------------------------------
10:21:04 AM.619: Loaded scenes:
10:21:04 AM.619: - scene 'Normal':
10:21:04 AM.622:     - source: 'Screen Capture (XSHM)' (xshm_input)
10:21:04 AM.622:     - source: 'Video Capture Device (V4L2)' (v4l2_input)
10:21:04 AM.622:     - source: 'Group' (group)
10:21:04 AM.622:         - source: 'Webcam Overlay.png' (image_source)
10:21:04 AM.622:     - source: 'Main Overlay.png' (image_source)
10:21:04 AM.622: ------------------------------------------------
10:21:21 AM.269: ---------------------------------
10:21:21 AM.269: video settings reset:
10:21:21 AM.269: 	base resolution:   3840x2160
10:21:21 AM.269: 	output resolution: 3840x2160
10:21:21 AM.269: 	downscale filter:  Bicubic
10:21:21 AM.269: 	fps:               30/1
10:21:21 AM.269: 	format:            NV12
10:21:21 AM.269: 	YUV mode:          601/Partial
10:21:21 AM.269: NV12 texture support not available
10:28:09 AM.729: ---------------------------------
10:28:09 AM.729: [x264 encoder: 'simple_h264_stream'] preset: veryfast
10:28:09 AM.730: [x264 encoder: 'simple_h264_stream'] settings:
10:28:09 AM.730: 	rate_control: CBR
10:28:09 AM.730: 	bitrate:      1261
10:28:09 AM.730: 	buffer size:  1261
10:28:09 AM.730: 	crf:          0
10:28:09 AM.730: 	fps_num:      30
10:28:09 AM.730: 	fps_den:      1
10:28:09 AM.730: 	width:        3840
10:28:09 AM.730: 	height:       2160
10:28:09 AM.730: 	keyint:       60
10:28:09 AM.730: 
10:28:09 AM.730: [x264 encoder: 'simple_h264_stream'] custom settings: scenecut=0
10:28:09 AM.766: ---------------------------------
10:28:09 AM.767: [FFmpeg aac encoder: 'simple_aac'] bitrate: 160, channels: 2, channel_layout: 3
10:28:09 AM.767: 
10:28:09 AM.769: [rtmp stream: 'simple_stream'] Connecting to RTMP URL rtmp://live-dfw.twitch.tv/app...
10:28:10 AM.729: [rtmp stream: 'simple_stream'] Connection to rtmp://live-dfw.twitch.tv/app successful
10:28:10 AM.731: ==== Streaming Start ===============================================
10:30:36 AM.295: [rtmp stream: 'simple_stream'] Stream shutdown timeout reached (30 second(s))
10:30:36 AM.295: [rtmp stream: 'simple_stream'] User stopped the stream
10:30:36 AM.295: Output 'simple_stream': stopping
10:30:36 AM.295: Output 'simple_stream': Total frames output: 1288
10:30:36 AM.296: Output 'simple_stream': Total drawn frames: 596 (4393 attempted)
10:30:36 AM.296: Output 'simple_stream': Number of lagged frames due to rendering lag/stalls: 3797 (86.4%)
10:30:36 AM.307: ==== Streaming Stop ================================================
10:30:39 AM.807: Video stopped, number of skipped frames due to encoding lag: 1181/1341 (88.1%)
